{
    "_extends" : "./BusinessConfig.Common.json",
    "productionServerUrl": "https://download.wmgaming.it:8443/rest/test/html5",
    "enableLogging" : true,
    "urlSelectionView" : {
        "isEnabled" : true
    },
    "externalHistoryAction": {
        "type": "url",
        "url": "http://test.wmgaming.it:8001/WEB/FindClientSessionHistory.do"
    }
}