{
    "enableLogging" : true,
    "clientIdPrefix": "",
    "clientIdPrefixV1" : "",
    "clientDeploymentId": "Default",
    "productionServerUrl": "https://download.wmgaming.it:8443/rest/test/html5",
    "startSession" : {
        "useCashier" : true
    },
    "addCredit" : {
        "isEnabled" : true,
        "useCashier" : true
    },
    "urlSelectionView" : {
        "isEnabled" : true
    },
    "quickLoad" : {
        "isEnabled" : false
    },
    "cashierView": {
        
    },
    "sessionStatsView": {
        "restartSessionButtonDesktop": {
            "isEnabled": true
        },
        "restartSessionButtonMobile": {
            "isEnabled": true
        }
    },
    "externalHistoryAction": {
        "type": "url",
        "url": "https://wmg.piattaforma97.it"
    },
    "desktopGui": {
        "topLeftInfoSlot" : {
            "type" : "none"
        },
        "topRightInfoSlot" : {
            "type" : "none"
        },
        "openMenuButton" : {
            "isEnabled" : true
        },
        "closeSessionButton": {
            "isEnabled": true,
            "action": "closeSession"
        },
        "addCreditButton": {
            "isEnabled": true
        },
        "toggleSoundButton": {
            "isEnabled": true
        },
        "fullScreenButton": {
            "isEnabled": true
        },
        "socialMediaButtons": {
            "isEnabled": true
        },
        "autoPlayMenuConfig" : {
            "lossLimitTextBoxes" : {
                "isEnabled": true
            },
            "winningsLimitTextBox" : {
                "isEnabled": true
            }
        },
        "menuViewTabsConfig" : {
            "rulesTab" : {
                "isEnabled": true  
            },
            "historyTab" : {
                "isEnabled": true 
            },
            "settingsTab" : {
                "isEnabled": true 
            }
        },
        "freeGamesNotificationButton" : {
            "launchSessionStatsScreen": {
                "isEnabled" : false
            }
        }
    },
    "mobileGui": {
        "openMenuButton" : {
            "isEnabled" : true
        },
        "closeSessionButton": {
            "isEnabled" : true,
            "action": "closeSession"
        },
        "autoPlayMenuConfig" : {
            "lossLimitTextBoxes" : {
                "isEnabled": true
            },
            "winningsLimitTextBox" : {
                "isEnabled": true
            }
        },
        "menuViewTabsConfig" : {
            "rulesTab" : {
                "isEnabled": true  
            },
            "historyTab" : {
                "isEnabled": true
            },
            "settingsTab" : {
                "isEnabled": true
            }
        },
        "freeGamesNotificationButton" : {
            "launchSessionStatsScreen": {
                "isEnabled" : false
            }
        }
    },
    "responsibleGamingLinks": [],
    "forfunAdvert" : {
        "isEnabled": false
    }
}