{
    "_extends" : "./BusinessConfig.Common.json",
    "enableLogging" : false,
    "productionServerUrl": "https://downloadv2.wmgaming.it:7443/acs/rest/comms",
    "urlSelectionView" : {
        "isEnabled" : false
    },
    "externalHistoryAction": {
        "type": "url",
        "url": "http://backofficev2.wmgaming.it:7000/bo/extHistoryMain.action"
    }
}