{
    "_extends" : "./BusinessConfig.Common.json",
    "productionServerUrl": "https://download.wmgaming.it:8443/rest/test/html5",
    "enableLogging" : false,
    "urlSelectionView" : {
        "isEnabled" : false
    },
    "externalHistoryAction": {
        "type": "url",
        "url": "http://gan.wmgaming.it:8002/WEB/FindClientSessionHistory.do"
    }
}