{
    "clientIdPrefix": "eurobet",
    "clientDeploymentId": "Eurobet",
    "productionServerUrl": "https://downloadss.wmgaming.it:8443/rest/test/html5",
    "startSession" : {
        "useCashier" : true
    },
    "addCredit" : {
        "isEnabled" : true,
        "useCashier" : true
    },
    "cashierView" : {},
    "sessionStatsView": {
        "restartSessionButtonDesktop": {
            "isEnabled": false
        },
        "restartSessionButtonMobile": {
            "isEnabled": false
        }
    },
    "externalHistoryAction" : {
        "type": "url",
        "url": "https://eurobetit.qa.gameaccount.com/accountWagers.do"
    },
    "desktopGui": {
        "topLeftInfoSlot" : {
            "type" : "responsibleGamingLinks"
        },
        "topRightInfoSlot" : {
            "type" : "sessionInfo"
        },
        "openMenuButton" : {
            "isEnabled" : true
        },
        "closeSessionButton": {
            "isEnabled" : true,
            "action": "closeSession"
        },
        "addCreditButton": {
            "isEnabled": true
        },
        "fullScreenButton": {
            "isEnabled": true
        },
        "toggleSoundButton": {
            "isEnabled": true
        },
        "socialMediaButtons": {
            "isEnabled": false
        },
        "autoPlayMenuConfig" : {
            "lossLimitTextBoxes" : {
                "isEnabled": true
            },
            "winningsLimitTextBox" : {
                "isEnabled": true
            }
        },
        "menuViewTabsConfig" : {
            "rulesTab" : {
                "isEnabled": true  
            },
            "historyTab" : {
                "isEnabled": true 
            },
            "settingsTab" : {
                "isEnabled": true 
            }
        },
        "freeGamesNotificationButton" : {
            "launchSessionStatsScreen": {
                "isEnabled" : false
            }
        }
    },
    "mobileGui": {
        "openMenuButton" : {
            "isEnabled" : true
        },
        "closeSessionButton": {
            "isEnabled" : true,
            "action": "closeSession"
        },
        "autoPlayMenuConfig" : {
            "lossLimitTextBoxes" : {
                "isEnabled": true
            },
            "winningsLimitTextBox" : {
                "isEnabled": true
            }
        },
        "menuViewTabsConfig" : {
            "rulesTab" : {
                "isEnabled": true  
            },
            "historyTab" : {
                "isEnabled": true 
            },
            "settingsTab" : {
                "isEnabled": true 
            }
        },
        "freeGamesNotificationButton" : {
            "launchSessionStatsScreen": {
                "isEnabled" : false
            }
        }
    },
    "quickLoad" : {
        "isEnabled" : false
    },
    "responsibleGamingLinks": [
        {
            "id" : "Wmg",
            "buttonTexture" : "logo_wmg",
            "action" : {
                "type": "url",
                "url" : "http://www.wmgaming.it"
            }
        },
        {
            "id" : "18plus",
            "buttonTexture" : "logo_18plus",
            "action" : {
                "type": "url",
                "url": "https://www.eurobet.it/guida/informazioni/gioco-responsabile.html"
            }
        },
        {
            "id" : "aams",
            "buttonTexture" : "logo_ADM_horizontal_short",
            "action" : {
                "type": "url",
                "url": "https://www.agenziadoganemonopoli.gov.it"
            }
        }
    ]
}