{
    "T_splash_clientInfo" : "[GAME_STATIC_VERSION]",
    "T_splash_startingGame" : "Avvio del gioco",
    "T_splash_gameInProgress" : "Hai una partita in corso",
	"T_infobar_wallet" : "COIN",
	"T_infobar_wallet_withValue" : "COIN:[VALUE]",
	"T_infobar_totalBet" : "BET TOTALE",
	"T_infobar_totalBet_withValue" : "BET TOTALE:[VALUE]",
    "T_infobar_betPerLine" : "BET / LINEA",
	"T_infobar_betPerHand" : "BET / MANO",
	"T_infobar_numLines" : "LINEE",
	"T_infobar_numHands" : "MANI",
    "T_infobar_winnings" : "VINCITE",
    "T_infobar_winnings_withValue" : "VINCITE:[VALUE]",
    "T_infobar_superbet" : "SUPERBET",
    "T_infobar_superbet_withValue" : "SUPERBET:[VALUE]",
	"T_sessionDetails_ticketId" : "Ticket AAMS: [TICKET_ID]",
	"T_sessionDetails_sessionId" : "Sessione AAMS: [SESSION_ID]",
	"T_socialMediaMessage_default" : "Mi sto divertendo con [GAME_NAME] online! Prova la tua fortuna.",
    "T_socialMediaMessage_winnings" : "Prova la fortuna con [GAME_NAME] online! Io ho appena raggiunto la cifra di [WINNINGS]!",
    
	"T_tooltip_startSpin1" : "[SPACE] Inizia una partita.",
	"T_tooltip_startSpin2" : "[SPACE] Inizia il secondo giro.",
	"T_tooltip_fullScreen" : "[F11] Attiva/disattiva modalità a schermo intero.",
	"T_tooltip_changeLanguage" : "[L] Cambia la lingua in uso.",
	"T_tooltip_toggleSound" : "[M] Attiva/Disattiva il suono.",
	"T_tooltip_shareOnFacebook" : "[F] Condividi su Facebook!",
    "T_tooltip_shareOnTwitter" : "[T] Condividi su Twitter!",
    "T_tooltip_startSpin" : "[SPACE] Premi spin per iniziare una nuova partita.",
    "T_tooltip_openBetMenu" : "[B] Cambia le impostazioni di Bet.",
    "T_tooltip_openAutoplayMenu" : "[A] Cambia le impostazioni di Autoplay.",
    "T_tooltip_stopAutoplay" : "[A] Disattiva modalità Autoplay.",
    "T_tooltip_openMenu" : "[R] Apri il menu.",
    "T_tooltip_addCredit" : "[C] Aggiungi più credito alla tua partita.",
    "T_tooltip_toggleFullScreen" : "[F11] Abilita / Disabilita la modalità a schermo intero.",
    "T_tooltip_closeSession" : "[Q] Chiudi la sessione corrente",
    
    "T_message_startNewGame" : "Premi Spin per iniziare la partita.",
	"T_message_startSpin2" : "Tocca i rulli per trattenerli o liberarli, e tocca Spin per iniziare il secondo giro.",
	"T_message_outOfCredit" : "Non hai credito",
	"T_message_goodLuck" : "Buona fortuna!",
	"T_message_winlines" : "Vincita sulle linee [[LINES]]",
    "T_message_autoplayStats" : "Autoplay: ([NUM_AUTOPLAYS] spin rimasti, vincite in autoplay:[AUTOPLAY_WINNINGS])",
    "T_message_startFreeSpins" : "Premi Spin per iniziare [NUM_FREESPINS] Free Spins!",
	"T_message_freeSpinsStats" : "Free Spins: ([NUM_FREESPINS] rimasti, vincite in freespins:[FREESPINS_WINNINGS])",
	"T_message_bonus" : "Inizia il gioco bonus!",
    "T_message_closingSession" : "Chiudi la sessione di gioco",
    "T_message_lastGameWinnings" : "Vincite partite precedenti: [WINNINGS]",
    "T_message_restoringGame" : "Ripresa della partita in corso",
    "T_message_playingFromSuperbet" : "Superbet [SUPERBET]",
    "T_message_playingFromWinnings" : "Vincite [WINNINGS]",
    "T_message_playingFromPromoGames" : "Partita Gratis: ([NUM_PROMO_GAMES] rimasti, vincite:[PROMO_GAMES_WINNINGS])",
    "T_message_startNewPromoGame" : "Premi SPIN per iniziare una Partita Gratis.",
    "T_message_gameInProgress" : "Partita in corso (vincite:[WINNINGS])",
    "T_message_startPromoGames" : "Premi SPIN per iniziare [NUM_PROMO_GAMES] Partita Gratis",
    "T_message_noSession" : "Nessuna partita in corso",
	"T_cashier_title" : "Cassiere",
    "T_cashier_retrievingBalance" : "Recupero il tuo conto.",
    "T_cashier_maxTransferAmount" : "Trasferimento Massimo",
    "T_cashier_amountToTransfer" : "Importo da Trasferire",
	"T_cashier_maxSessionTransfer" : "Valore massimo di legge = [SESSION_TRANSFER_LIMIT]",
	"T_cashier_transferringToAccount" : "Trasferimento",
	"T_cashier_sessionLimitsReached" : "Hai raggiunto il limite massimo di [SESSION_TRANSFER_LIMIT] per questa sessione, non è possibile aggiungere ulteriore credito.",
	"T_sessionStats_closingSession" : "Chiusura sessione",
    "T_sessionStats_sessionClosed" : "La sessione di gioco ([SESSION_ID]) è stata terminata.",
	"T_sessionStats_sessionClosedByServer" : "La sessione di gioco ([SESSION_ID]) è stata chiusa automaticamente.",
    "T_sessionStats_sessionClosedTimeout" : "La sessione di gioco ([SESSION_ID]) è stata automaticamente chiusa dopo [SESSION_TIMEOUT_MINS] minuti di inattività.",
    "T_sessionStats_freeplayClosed" : "La sessione freeplay è stata terminata.",
	"T_sessionStats_freeplayClosedByServer" : "La sessione freeplay è stata chiusa automaticamente.",
	"T_sessionStats_freeplayClosedTimeout" : "La sessione freeplay è stata automaticamente chiusa dopo [SESSION_TIMEOUT_MINS] minuti di inattività.",
    "T_sessionStats_finalWallet" : "Coin finale: [SESSION_WALLET]",
	"T_sessionStats_totalWon" : "Vincite Totali: [SESSION_WINNINGS]",
	"T_sessionStats_totalSpent" : "Spesa Totale: [SESSION_SPENT]",
    "T_sessionStats_numGames" : "Numero di partite: [SESSION_NUM_GAMES]",
    "T_dialog_GameInProgress_Title" : "",
    "T_dialog_GameInProgress_Content" : "Hai una partita in corso.",
    "T_dialog_TransferImpossible_Title" : "Trasferimento impossibile",
    "T_dialog_TransferImpossible_Content" : "Hai solamente [MAX_TRANSFER_AMOUNT] disponibili per la partita. Il minimo importo trasferibile è [MIN_TRANSFER_AMOUNT]. Per favore ricarica il tuo conto e riprova di nuovo.",
    "T_dialog_MaxCreditAddedToSession_Title" : "Trasferimento impossibile",
    "T_dialog_MaxCreditAddedToSession_Content" : "Hai già aggiunto la massima quantità possibile di credito alla tua partita.",
	"T_dialog_BetTooHigh_Title" : "!",
	"T_dialog_BetTooHigh_Content" : "Bet Totale è troppo alto.",
	"T_dialog_OutOfCredit_Title" : "Credito Insufficiente",
	"T_dialog_OutOfCredit_Content" : "Non hai credito sufficiente per giocare un'altra partita.",
	"T_dialog_AddCredit_Title" : "Credito Insufficiente",
	"T_dialog_AddCredit_Content" : "Non hai credito sufficiente per giocare un'altra partita. Vuoi aggiungere credito e continuare a giocare?",
	"T_dialog_FatalError_Title" : "Errore [ERROR_CODE]",
	"T_dialog_FatalError_Content" : "Si è verificato un problema tecnico. Per favore chiudi il gioco e aprilo nuovamente. Se il problema persiste, contatta il supporto clienti.",
	"T_dialog_NoInternetError_Title" : "Gioco Disconnesso",
    "T_dialog_NoInternetError_Content" : "Il gioco è stato disconnesso. Per favore chiudi il gioco e aprilo nuovamente.",
    "T_dialog_FreeGamesAward_Title" : "Round Gratuiti",
    "T_dialog_FreeGamesAward_Content" : "Inizia [NUM_FREE_GAMES] Round Gratuiti.",
    "T_dialog_FreeGamesSelection_Title" : "Free Games",
    "T_dialog_FreeGamesSelection_Content" : "Seleziona una campagna Round Gratuiti",
    "T_dialog_FreeGamesComplete_Title" : "Free Games completo",
    "T_dialog_FreeGamesComplete_Content" : "Hai completato i tuoi Round Gratuiti.",
    "T_dialog_FreeSpinStart_Title" : "Gioca a Freespins",
    "T_dialog_FreeSpinStart_Content" : "Inizia [NUM_FREESPINS] FreeSpins!",
    "T_dialog_FreeSpinStart_Button" : "Gioca",
    "T_dialog_AutoplayAborted_Title" : "Fine Autoplay",
	"T_dialog_AutoplayAborted_Content_Generic" : "Autoplay non può più continuare",
    "T_dialog_AutoplayAborted_Content_MaxLossesExceeded" : "Hai raggiunto il limite perdita di [MAX_LOSSES].",
    "T_dialog_AutoplayAborted_Content_MaxWinningsExceeded" : "Hai raggiunto il limite vincite di [MAX_WINNINGS].",
    "T_dialog_AutoplayAborted_Content_InsufficientCredit" : "Credito insufficiente.",
    "T_dialog_AutoplayCompleted_Title" : "Autoplay completo",
	"T_dialog_AutoplayCompleted_Content" : "Hai completato i tuoi spin autoplay.",
    "T_dialog_SessionClosed_Title" : " ",
    "T_dialog_SessionClosed_ByServer_Content" : "La sessione di gioco è stata chiusa automaticamente.",
    "T_dialog_SessionClosed_Timeout_Content" : "La sessione di gioco è stata automaticamente chiusa dopo [SESSION_TIMEOUT_MINS] minuti di inattività.",
    "T_dialog_SessionClosed_TimeoutWithSessionId_Content" : "La sessione di gioco ([SESSION_ID]) è stata automaticamente chiusa dopo [SESSION_TIMEOUT_MINS] minuti di inattività.",
    "T_dialog_SessionClosedFailed_Title" : "!",
    "T_dialog_SessionClosedFailed_Content" : "Impossibile chiudere la sessione di gioco.",
    "T_dialog_InvalidFreeRoundsTotalBet_Title" : "!",
    "T_dialog_InvalidFreeRoundsTotalBet_Content" : "Bet totale di [TOTAL_BET] non è valido per [GAME_NAME]",
    "T_gameAdvert_title" : "Gioca Ora!",
	"T_gameAdvert_content" : "Registrati e gioca con soldi veri!",
    "T_gameAdvert_registerNowButton" : "Registrati Ora",
    "T_autoplayMenu_title" : "Impostazioni di Autoplay",
    "T_autoplayMenu_currentBalance": "Bilancio: [BALANCE]",
    "T_autoplayMenu_currentBet": "Bet Totale: [TOTAL_BET]",
    "T_autoplayMenu_limitYourLossesTo": "Limita le tue perdite a",
    "T_autoplayMenu_customLossLimit": "Limite di perdita personalizzato",
    "T_autoplayMenu_limitYourWinningsTo": "Limita le tue vincite a",
    "T_betMenu_title" : "Impostazioni di Bet",
    "T_betMenu_totalStake" : "Bet Totale: [TOTAL_STAKE]",
    "T_betMenu_numHands" : "Mani",
    "T_betMenu_numLines" : "Linee",
    "T_betMenu_stake" : "Bet",
    "T_betMenu_stakePerHand" : "Bet / Mano",
    "T_betMenu_stakePerHand_breakdown" : "[NUM_LINES] linee, [STAKE_PER_LINE] / linea",
    "T_betMenu_stakePerLine" : "Bet / Linea",
    "T_betMenu_specialWagerMultiplier" : "Special Wager Multiplier",
    "T_betMenu_SettingEnabled" : "ON",
    "T_betMenu_SettingDisabled" : "OFF",
    "T_menu_RulesTitle" : "Regole",
    "T_menu_HistoryTitle" : "Giocate Precedenti",
    "T_menu_SettingsTitle" : "Impostazioni",
    "T_menu_ExternalHistoryInfo" : "Per visualizzare le informazioni sulle partite precedenti della sessione corrente, premere il pulsante qui sotto.",
    "T_menu_ExternalHistoryNotAvailable" : "La cronologia delle partite è disponibile solo quando si gioca con soldi reali.",
    "T_menu_OpenHistoryButton" : "Consulta lo storico completo",
    "T_menu_SoundSetting" : "Suono",
    "T_menu_SettingEnabled" : "ON",
    "T_menu_SettingDisabled" : "OFF",
    "T_button_spin" : "Spin",
    "T_button_stop" : "Stop",
    "T_button_skip" : "Salta",
	"T_button_autoplay": "Autoplay",
	"T_button_bet" : "Bet",
	"T_button_betPerHand" : "Bet / Mano",
	"T_button_betPerLine" : "Bet / Linee",
	"T_button_numLines" : "Linee",
	"T_button_numhands" : "Mani",
	"T_button_play" : "Gioca",
	"T_button_ok" : "OK",
	"T_button_cancel" : "Cancella",
	"T_button_confirm" : "Conferma",
    "T_button_close" : "Chiudi",
    "T_button_dismiss" : "Respingere",
	"T_button_decreaseTotalBet" : "Diminuire",
	"T_button_addCredit" : "Aggiungi credito",
	"T_button_closeSession" : "Chiudi sessione",
	"T_button_restartSession" : "Nuova Partita",
	"T_button_exitClient" : "Esci",
	"T_button_selectFreeplay" : "Free Play",
	"T_button_selectRealplay" : "Soldi Veri",
    "T_button_selectFunBonus" : "Fun Bonus",
    "T_button_begin" : "Inizia",
	"T_button_min": "MIN",
    "T_button_max": "MAX",
    "T_button_freeplay" : "Freeplay",
    "T_button_realplay" : "Realplay",
    "T_button_funbonus" : "Fun Bonus",
    "T_button_tryAgain" : "Riprova",
    "T_loading_screen_text_freeplay": "Freeplay",
    "T_loading_screen_text_realplay": "Realplay",
    "T_loading_screen_text_funbonus" : "Fun Bonus",
    "T_button_freeGamesOption" : "Bet:[TOTAL_BET], Round:[NUM_FREE_GAMES]",
    "T_button_restartAutoplay" : "Ricomincia Autoplay",
    "T_Total_Winnings_PopUp": "Vincita",
    "T_Total_Superbet_PopUp": "Superbet",
    "T_Total_FreeSpins_PopUp" : "Free Spins",
    "T_Total_BonusMultiplier_PopUp" : "Moltiplicatore x [MULTIPLIER]",
    "T_rules_SymbolsTitle" : "Simboli",
    "T_rules_PrizesInPointsFreeplay" : "Tutti i valori dei premi sono visualizzati in punti e sono corretti per la tua scommessa totale attuale di [TOTAL_BET].",
    "T_rules_PrizesInPoints" : "Tutti i valori dei premi sono visualizzati in punti e sono corretti per la tua scommessa totale attuale di [TOTAL_BET]. [NUM_POINTS_TO_CURRENCY_UNIT] punti = [CURRENCY_UNIT]",
    "T_rules_WinlinesTitle" : "Linee di Pagamento",
    "T_rules_RtpDescriptionTitle" : "Ritorno al giocatore",
    "T_rules_RtpDescriptionBody" : "Il ritorno teorico minimo per il giocatore è maggiore del 90%.",
    "T_holds_holdReel" : "TIENI",
    "T_holds_reelIsHeld" : "TENUTO",
    "T_rules_PrizeValuesDescriptionTitle":"Prize Values",
    "T_rules_PrizeValuesDescriptionBody":"Tutti i premi vengono visualizzati in punti e sono corretti per l'attuale bet impostato: [TOTAL_BET].  [NUM_POINTS_TO_CURRENCY_UNIT] punti = [CURRENCY_UNIT]\n\nIl numero massimo di premi ottenibili nella fase di schiusura delle uova è 5, ad eccezione del caso in cui sia presente un bonus. Nel caso di bonus, il numero massimo di premi sarà 4. E' possibile che più premi descritti in paytable possano essere raggruppati e corrisposti da un singolo uovo. Ciascun premio incrementa il contatore delle vincite totali, le quali vengono corrisposte al termine di ciascun round.\n\nIn funzione del bet impostato, ciascun premio può variare in un range da [MINIMUM_PRIZE_VALUE_AWARDED] a [MAXIMUM_PRIZE_VALUE_AWARDED] punti.",
    "T_rules_PrizeValuesDescriptionBodyFreeplay":"Tutti i premi vengono visualizzati in punti e sono corretti per l'attuale bet impostato: [TOTAL_BET].\n\nIl numero massimo di premi ottenibili nella fase di schiusura delle uova è 5, ad eccezione del caso in cui sia presente un bonus. Nel caso di bonus, il numero massimo di premi sarà 4. E' possibile che più premi descritti in paytable possano essere raggruppati e corrisposti da un singolo uovo. Ciascun premio incrementa il contatore delle vincite totali, le quali vengono corrisposte al termine di ciascun round.\n\nIn funzione del bet impostato, ciascun premio può variare in un range da [MINIMUM_PRIZE_VALUE_AWARDED] a [MAXIMUM_PRIZE_VALUE_AWARDED] points.",
    "T_rules_PrizeValueList":"I singoli premi per il bet impostato [TOTAL_BET] sono: "
}