{
    "_extends" : "./BusinessConfig.Common.json",
    "productionServerUrl" : "https://downloadv2.wmgaming.it:7443/acs/rest/comms",
    "enableLogging" : false,
    "urlSelectionView" : {
        "isEnabled" : false
    },
    "externalHistoryAction": {
        "type": "url",
        "url": "http://backofficev2.wmgaming.it:7000/bo/extHistoryMain.action"
    },
    "exitClientActionDesktop" : {
        "type" : "redirect",
        "url" : "https://nrgs-b2b-cstg.greentube.com/Nrgs/B2B/Web/NagarroAT/V5/OpenUrl?url=https://starvegas.it"
    },
    "exitClientActionMobile" : {
        "type" : "redirect",
        "url" : "https://nrgs-b2b-cstg.greentube.com/Nrgs/B2B/Web/NagarroAT/V5/OpenUrl?url=https://starvegas.it"
    }
}