{
    "_extends" : "./BusinessConfig.Common.json",
    "productionServerUrl" : "https://testv2.wmgaming.it:8443/acs/rest/comms",
    "enableLogging" : true,
    "urlSelectionView" : {
        "isEnabled" : true
    },
    "externalHistoryAction": {
        "type": "url",
        "url": "http://testv2.wmgaming.it:8000/bo/extHistoryMain.action"
    }
}