{
    "clientIdPrefix": "goldbet",
    "clientDeploymentId": "Goldbet",
    "startSession" : {
        "useCashier" : true
    },
    "addCredit": {
        "isEnabled": false
    },
    "exitClientActionDesktop" : {
        "type" : "redirect",
        "url" : "https://casino.goldbet.it/endgame"
    },
    "exitClientActionMobile" : {
        "type" : "redirect",
        "url" : "https://casino.goldbet.it/endgame"
    },
    "sessionStatsView": {
        "restartSessionButtonDesktop": {
            "isEnabled": false
        },
        "restartSessionButtonMobile": {
            "isEnabled": false
        },
        "exitClientButtonDesktop" : {
            "isEnabled" : true
        },
        "exitClientButtonMobile" : {
            "isEnabled" : true
        }
    },
    "externalHistoryAction": {
        "type": "url",
        "url": "www.please-provide-external-history-url.com"
    },
    "desktopGui": {
        "topLeftInfoSlot" : {
            "type" : "responsibleGamingLinks"
        },
        "topRightInfoSlot" : {
            "type" : "sessionInfo"
        },
        "openMenuButton" : {
            "isEnabled" : true
        },
        "closeSessionButton": {
            "isEnabled" : true,
            "action": "closeSession"
        },
        "addCreditButton": {
            "isEnabled": false
        },
        "fullScreenButton": {
            "isEnabled": true
        },
        "toggleSoundButton": {
            "isEnabled": true
        },
        "socialMediaButtons": {
            "isEnabled": false
        },
        "autoPlayMenuConfig" : {
            "lossLimitTextBoxes" : {
                "isEnabled": true
            },
            "winningsLimitTextBox" : {
                "isEnabled": true
            }
        },
        "menuViewTabsConfig" : {
            "rulesTab" : {
                "isEnabled": true  
            },
            "historyTab" : {
                "isEnabled": true 
            },
            "settingsTab" : {
                "isEnabled": true 
            }
        },
        "freeGamesNotificationButton" : {
            "launchSessionStatsScreen": {
                "isEnabled" : false
            }
        }
    },
    "mobileGui": {
        "openMenuButton" : {
            "isEnabled" : true
        },
        "closeSessionButton": {
            "isEnabled": true,
            "action": "closeSession"
        },
        "autoPlayMenuConfig" : {
            "lossLimitTextBoxes" : {
                "isEnabled": true
            },
            "winningsLimitTextBox" : {
                "isEnabled": true
            }
        },
        "menuViewTabsConfig" : {
            "rulesTab" : {
                "isEnabled": true  
            },
            "historyTab" : {
                "isEnabled": true 
            },
            "settingsTab" : {
                "isEnabled": true 
            }
        },"freeGamesNotificationButton" : {
            "launchSessionStatsScreen": {
                "isEnabled" : false
            }
        }
    },
    "responsibleGamingLinks": [
        {
            "id" : "wmg",
            "buttonTexture" : "logo_wmg",
            "action" : {
                "type" : "url",
                "url" : "http://www.wmgaming.it"
            }
        },
        {
            "id" : "Logo Goldbet",
            "buttonTexture" : "logo_Goldbet"
        },
        {
            "id" : "Intelligent Gaming Goldbet",
            "buttonTexture" : "logo_intelligentGaming_Goldbet",
            "action" : {
                "type" : "url",
                "url" : "https://web.goldbet.it/Pages/gioco_responsabile/blank"
            }
        },
        {
            "id" : "18 Plus",
            "buttonTexture" : "logo_18plus_Goldbet",
            "action" : {
                "type" : "url",
                "url" : "https://web.goldbet.it/Pages/Tutela_dei_Minori/blank"
            }
        },
        {
            "id" : "Aams",
            "buttonTexture" : "logo_ADM_horizontal_short",
            "action" : {
                "type": "url",
                "url" : "http://www.agenziadoganemonopoli.gov.it/portale/"
            }
        }
    ],
    "quickLoad" : {
        "isEnabled" : false
    }
}