{
    "_extends" : "./BusinessConfig.Common.json",
    "productionServerUrl": "https://downloadss.wmgaming.it:8443/rest/test/html5",
    "enableLogging" : false,
    "urlSelectionView" : {
        "isEnabled" : false
    },
    "externalHistoryAction": {
        "type": "url",
        "url": "https://gameaccount.lottomatica.it/account-history.shtml"
    }
}