{
    "T_dialog_errorSgd_generic" : "A technical error has occurred. If it persists please contact customer support.",
    "T_dialog_errorSgd_pleaseTryAgain" : "A technical error has occurred. Please try again.",
    "T_dialog_errorSgd_notLoggedIn" : "You are not currently logged in. Please log in and try again.",
    "T_dialog_errorSgd_insufficientFunds" : "You have insufficient funds to place this bet. Please top-up your account.",
    "T_dialog_errorSgd_responsibleGamingSessionExpired" : "Responsible gaming limits reached. The game will now close.",
    "T_dialog_errorSgd_accountBlocked" : "Your account is blocked. The game will now close. Please contact customer support.",
    "T_dialog_errorSgd_connectionError" : "Network timeout, please check your internet connection and try again after game reloads."
}